…
    ## Joining, by = "word"

Looking at word counts:

``` r
tidyAItwt0 %>% count(word, sort = TRUE)
```

    ## # A tibble: 11,372 x 2
    ##    word                n
    ##    <chr>           <int>
    ##  1 rt               6602
    ##  2 machinelearning  1375
    ##  3 gt                755
    ##  4 bigdata           752
    ##  5 future            685
    ##  6 read              653
    ##  7 business          652
    ##  8 amp               594
    ##  9 3                 506
    ## 10 artificial        479
    ## # ... with 11,362 more rows
…
``` r
tidyAItwt0 <- AItwtdata %>%
  select(text) %>%
  mutate(line = row_number()) %>%
  unnest_tokens(word, text) %>%
  anti_join(custom2_stop_words)
```

    ## Joining, by = "word"

``` r
tidyAItwt0 %>% count(word, sort = TRUE)
```

    ## # A tibble: 11,350 x 2
    ##    word            n
    ##    <chr>       <int>
    ##  1 future        685
    ##  2 read          653
    ##  3 business      652
    ##  4 world         479
    ##  5 ipfconline1   477
    ##  6 google        457
    ##  7 human         403
    ##  8 technology    390
    ##  9 data          382
    ## 10 fintech       370
    ## # ... with 11,340 more rows
…
I will word pairs occurring most frequently in the corpus.

``` r
twtAIbigrams<- AItwtdata %>%
select(text) %>%
mutate(line = row_number()) %>%
unnest_tokens(bigram, text, token = "ngrams", n = 2)

twtAIbigrams %>% 
  count(bigram, sort = TRUE)
```

    ## # A tibble: 44,760 x 2
    ##    bigram                         n
    ##    <chr>                      <int>
    ##  1 artificialintelligence and   840
    ##  2 of the                       629
    ##  3 of artificialintelligence    593
    ##  4 artificialintelligence to    587
    ##  5 in the                       554
    ##  6 artificialintelligence in    544
    ##  7 the future                   506
    ##  8 and artificialintelligence   468
    ##  9 how artificialintelligence   453
    ## 10 read more                    451
    ## # ... with 44,750 more rows
…
